#define close_width 12
#define close_height 12
static char close_bits[] = {
  0xF0, 0x00, 0xFC, 0x03, 0xFE, 0x07, 0xFE, 0x07, 0xFF, 0x0F, 0xFF, 0x0F, 
  0xFF, 0x0F, 0xFF, 0x0F, 0xFE, 0x07, 0xFE, 0x07, 0xFC, 0x03, 0xF0, 0x00, 
  };
